{"success":true,"data":{"nuggets":[{"id":2769,"content":"<p>He knew this was coming. The 2023 sixth-round pick out of Princeton enters the final year of his rookie deal having overachieved for his draft slot while racking up 84 receptions for 1,030 yards and 12 touchdowns in three seasons. Only 46 receivers in the NFL can make the same claim over that time span. The competition was coming, though. Offensive coordinator Dan Pitcher called for it at the combine, and the draft delivered. Two years after Jermaine Burton failed to supplant Iosivas, Georgia’s Colbie Young will be given an opportunity. The 6-5, 218-pound Young brings inside-out versatility and a big body with great hands while showing a willingness to impact the game as a blocker. He even offers a skill set to do some of the things Mike Gesicki does as a hybrid tight end receiver.<br> <br>“I think that length, that speed, the competition he’s faced — (Young) is a great fit for what we do,” Taylor said. “We like to throw the football, and so the more guys that can be added and viewed as weapons is a really good thing for us. We’ve got guys with a lot of length. We have a lot of those guys. You look at Tee (Higgins), Drei and now Colbie, and you look at the tight ends, Gesicki. I feel really good about both the tight end room and receiver room we’ve created.”<br> <br>Iosivas, specifically, will have his hands full and this certainly pushes him toward free agency after the season ends.</p>","sourceName":"Paul Dehner","sourceUrl":"https://www.nytimes.com/athletic/7231992/2026/04/27/bengals-2026-nfl-draft-roster-impact/","urlIcon":null,"createdAt":"2026-04-28T12:15:20.576Z","updatedAt":"2026-04-28T12:15:20.576Z","playerId":299,"fantasyInsight":"","player":{"id":299,"playerId":"AI-0111","name":"Andrei Iosivas","team":"Cincinnati Bengals","position":"WR","headshotPic":"https://www.playerprofiler.com/wp-content/uploads/2022/12/andrei-iosivas-advanced-metrics.png","rookie":false},"isSaved":false},{"id":2768,"content":"<p>Cowboys executive vice president Stephen Jones made it clear after Day 1 of the draft that Dallas has no interest in trading Pickens. That means the Cowboys should continue to have arguably the NFL’s best one-two punch at wide receiver. After Pickens and Lamb, Flournoy and Turpin are expected to fill the No. 3 and No. 4 roles. Smith was added in the seventh round.</p>","sourceName":"Jon Machota","sourceUrl":"https://www.nytimes.com/athletic/7232358/2026/04/27/cowboys-depth-chart-post-nfl-draft-update/","urlIcon":null,"createdAt":"2026-04-28T12:14:17.313Z","updatedAt":"2026-04-28T12:14:17.313Z","playerId":557,"fantasyInsight":"","player":{"id":557,"playerId":"RF-2401","name":"Ryan Flournoy","team":"Dallas Cowboys","position":"WR","headshotPic":"https://www.playerprofiler.com/wp-content/uploads/2024/03/ryan-flournoy-advanced-metrics-1.png","rookie":false},"isSaved":false},{"id":2767,"content":"<p>The Browns have completely rebuilt their offensive line with smart acquisitions such as trading for Tytus Howard and drafting Spencer Fano. At the end of the first round, they drafted Concepcion, one of my favorite players in the draft.<br> <br>Concepcion is the best separator in the class and can flat-out outrun angles after the catch. Concepcion has been compared to Zay Flowers, who had the best season of his career in Todd Monken’s system. Monken is very good at designing ways to get the ball to his playmakers in space and on the run. He’ll do the same for Concepcion, and he’ll get handoffs on fly sweeps, so defenses will have to respect the threat of him getting the ball whenever he goes into fly motion.</p><p><br></p><p>Concepcion had the highest rate in this draft class of off-target throws of 15-plus air yards to him as quarterback play severely limited his production at Texas A&amp;M. He can get open on all levels of the field and was in the 92nd percentile in success rate against man coverage, according to Matt Harmon’s reception perception charting. He mostly played in the slot, but with this ability to get off press coverage, he’ll give the Browns a much-needed deep threat and help their offense feel less congested. If he lives up to his potential, his presence will make it hard to load up the box to stop running back Quinshon Judkins.<br></p>","sourceName":"Ted Nguyen","sourceUrl":"https://www.nytimes.com/athletic/7224580/2026/04/26/nfl-draft-best-fits-reese-downs-bain/","urlIcon":null,"createdAt":"2026-04-28T12:12:04.592Z","updatedAt":"2026-04-28T12:12:04.592Z","playerId":3580,"fantasyInsight":"","player":{"id":3580,"playerId":"KC-2601","name":"KC Concepcion","team":"Prospect","position":"WR","headshotPic":"https://www.playerprofiler.com/wp-content/uploads/2025/10/kc-concepcion-advanced-metrics.png","rookie":false},"isSaved":false},{"id":2766,"content":"<p>Last year's seventh-round pick, Brashard Smith, was a sparkplug on offense that fans were begging to see for most of the season, given the desperate state of the backfield. It wasn't until season's end that Smith got a bit more playing time, and he had some nice moments with clear potential.</p><p><br></p><p>That said, it's also not difficult to read the tea leaves this offseason in terms of any holdover at the position. Kenneth Walker III was signed in free agency. Emari Demercado was, too. The moment Emmett Johnson was drafted in the fifth round out of Nebraska, it became clear that Smith would need to find other ways to add value because the ground game is spoken for.<br> <br>The good news is that Smith has the sort of offensive versatility that K.C. can use elsewhere, but therein lies the challenge for a player who didn't get enough reps last year as it was.<br></p>","sourceName":"Matt Conner","sourceUrl":"https://arrowheadaddict.com/4-chiefs-veterans-now-feeling-pressure-after-influx-of-rookie-talent-01kpy8gp4x65","urlIcon":null,"createdAt":"2026-04-28T12:07:00.507Z","updatedAt":"2026-04-28T12:07:00.507Z","playerId":20,"fantasyInsight":"","player":{"id":20,"playerId":"BS-2502","name":"Brashard Smith","team":"Kansas City Chiefs","position":"RB","headshotPic":"https://www.playerprofiler.com/wp-content/uploads/2024/10/brashardsmith.png","rookie":false},"isSaved":false},{"id":2765,"content":"<p>In the games I watched, I didn’t get to see Williams run too many choice routes, though in 2024 he did run a few from the backfield in some interesting looks. But even in 2025, he showed the traits that suggests he could be a very good choice route runner.</p><p><br></p><p>Williams will need to learn exactly how David Blough wants the choice route to be run and Jayden Daniels will need to get some reps at those two because Washington hasn’t used those types of routes a lot since Daniels was drafted, but the skill set is clearly there for Williams to excel on those types of routes in this offense.<br></p>","sourceName":"Mark Bullock","sourceUrl":"https://markbullock.substack.com/p/can-antonio-williams-play-the-st?r=fd8sn&utm_campaign=post&utm_medium=web&triedRedirect=true","urlIcon":null,"createdAt":"2026-04-28T12:06:01.057Z","updatedAt":"2026-04-28T12:06:01.057Z","playerId":3658,"fantasyInsight":"","player":{"id":3658,"playerId":"AQ-0222","name":"Antonio Williams","team":"Prospect","position":"WR","headshotPic":"https://www.playerprofiler.com/wp-content/uploads/2022/06/antonio-williams-advanced-metrics.png","rookie":false},"isSaved":false}],"pagination":{"total":2738,"page":1,"limit":5,"totalPages":548}}}