{"success":true,"data":{"nuggets":[{"id":2764,"content":"<p>Though the 2023 third-rounder has shown glimpses of strong play over the last two seasons, the Browns picked their perimeter wide receiver of the future in the second round in Denzel Boston. And though the Browns are committed — “stuck” might be the better term — to Jerry Jeudy for at least one more season and at least somewhat committed to developing 2025 rookie Isaiah Bond, Tillman is entering the final year of his rookie contract and now feels like a summertime trade candidate. Maybe that’s a good thing for Tillman’s career, but he’s on the roster bubble.</p>","sourceName":"Zac Jackson","sourceUrl":"https://www.nytimes.com/athletic/7232126/2026/04/27/browns-winners-losers-nfl-draft-2026/","urlIcon":null,"createdAt":"2026-04-28T12:01:25.663Z","updatedAt":"2026-04-28T12:01:25.663Z","playerId":139,"fantasyInsight":"","player":{"id":139,"playerId":"CT-0223","name":"Cedric Tillman","team":"Cleveland Browns","position":"WR","headshotPic":"https://www.playerprofiler.com/wp-content/uploads/2022/06/cedric-tillman-advanced-metrics.png","rookie":false},"isSaved":false},{"id":2763,"content":"<p>The Browns didn’t add to the running back room, and with Quinshon Judkins still rehabbing from the multiple injuries that ended his rookie season, Sanders gets the spring to show why he should be in the team’s plans. Dylan Sampson remains the No. 2 running back on the depth chart but is probably too small to be anything more than a situational player, so Sanders — claimed last August after signing with the Los Angeles Chargers as an undrafted rookie — should have the opportunity to win a role as a true backup and player worth further development.<br> <br>Sanders prefers to go by Rocket, and the Browns seem thrilled to have scored former Toledo Rocket Emmanuel McNeil-Warren late in the second round after they considered the safety a borderline first-round pick. So it’s just a big weekend for Rockets and a Browns offense that, based on the last two seasons, would seem like a rocket ship if it could get to even 19 points per game in the season ahead.</p>","sourceName":"Zac Jackson","sourceUrl":"https://www.nytimes.com/athletic/7232126/2026/04/27/browns-winners-losers-nfl-draft-2026/","urlIcon":null,"createdAt":"2026-04-28T12:00:47.680Z","updatedAt":"2026-04-28T12:00:47.680Z","playerId":202,"fantasyInsight":"","player":{"id":202,"playerId":"RS-0223","name":"Raheim Sanders","team":"Cleveland Browns","position":"RB","headshotPic":"https://www.playerprofiler.com/wp-content/uploads/2022/06/Raheim-Sanders.png","rookie":false},"isSaved":false},{"id":2762,"content":"<p>There’s an open competition here for the Patriots’ No. 3 job behind Stevenson and Henderson. Miller has the straight-line speed that makes him enticing (and potentially the favorite) for the role. But he has struggled in pass protection and as a receiver, two of the top qualities that offensive coordinator Josh McDaniels values in a third-down back.</p>","sourceName":"Chad Graff","sourceUrl":"https://www.nytimes.com/athletic/7231869/2026/04/27/patriots-53-man-roster-projection-2026-nfl-draft/","urlIcon":null,"createdAt":"2026-04-28T11:59:55.428Z","updatedAt":"2026-04-28T11:59:55.428Z","playerId":3653,"fantasyInsight":"","player":{"id":3653,"playerId":"JM-2601","name":"Jam Miller","team":"Prospect","position":"RB","headshotPic":"https://www.playerprofiler.com/wp-content/uploads/2025/11/jam-miller-advanced-metrics.png","rookie":false},"isSaved":false},{"id":2761,"content":"<p>Heidenreich is a better athlete than his draft position suggests, as Brugler gave the Navy product a fifth-round grade. It doesn’t help the local product that the Steelers had already spent a fourth-round pick on Iowa return specialist Kaden Wetjen. But Heidenreich has beaten the odds before, going from a 0-star recruit to Navy’s all-time leading receiver. It will take some creativity for the Steelers to find a way to utilize Heidenreich, who has some versatility and special-teams value. He surely will have plenty of hometown fans cheering for him in the preseason and at training camp.</p><p><br></p><p>Heidenreich will start at the bottom and need to work his way up the depth chart the hard way. He could be a practice squad candidate in the long run, given the Steelers don’t have many roster spots available and filled the need at return man with Wetjen.<br></p>","sourceName":"Mike DeFabo","sourceUrl":"https://www.nytimes.com/athletic/7181769/2026/04/25/eli-heidenreich-steelers-navy-nfl-draft-pick-230-2026/","urlIcon":null,"createdAt":"2026-04-28T03:14:16.772Z","updatedAt":"2026-04-28T03:14:16.772Z","playerId":3699,"fantasyInsight":"","player":{"id":3699,"playerId":"EH-2601","name":"Eli Heidenreich","team":"Prospect","position":"WR","headshotPic":"https://www.playerprofiler.com/wp-content/uploads/2026/01/eliheidenreich.png","rookie":false},"isSaved":false},{"id":2760,"content":"<p>He's essentially a big wide receiver. Don't get me wrong, he can be physical and offer some blocking out of the slot, but watching him for three days during the Senior Bowl practices back in January, Joly looked like an athletic big-bodied wide receiver running drills with his more traditional-looking tight-end brethren.<br></p><p><br></p><p>Joly indicated the Broncos believe that he’s a ‘Swiss Army Knife’ and can do a lot of things as an in-line blocker, in the slot, and in the backfield.</p>","sourceName":"Chad Jenson","sourceUrl":"https://www.si.com/nfl/broncos/onsi/drafting-justin-joly-completely-reshapes-broncos-at-tight-end","urlIcon":null,"createdAt":"2026-04-28T03:01:31.601Z","updatedAt":"2026-04-28T03:01:31.601Z","playerId":3637,"fantasyInsight":"","player":{"id":3637,"playerId":"JJ-2603","name":"Justin Joly","team":"Prospect","position":"TE","headshotPic":"https://www.playerprofiler.com/wp-content/uploads/2025/12/justin-joly-advanced-metrics.png","rookie":false},"isSaved":false}],"pagination":{"total":2738,"page":2,"limit":5,"totalPages":548}}}